7, Aparência,narigudo/ seu gordo / gordo fazendo gordice / cabelo ruim/ cabelo de bombril / gorda escrota/ gordo escroto / feia pra caralho / anão de jardim / anão de jardim /gordo feio / negro gordo / cara de pobre/ cara de favelada / cara de mendiga /cara de empregada / roupa de pobre/ roupa de favelada / roupa de mendiga / roupa de empregada
6, Classe social,bolsa esmola / pobraiada / bandido favelado / filho de papai / coisa de pobre / parece favelado / favelado é foda / favelado e foda / coisa de favelado / vai pra cuba / parece mendigo / mendigo fedido / trabalhar vagabundo
5, Deficiência,retardado mental / tem down / alejado / demente / leproso / aidético / aidetico/ coisa de retardado / deficiente mental / tem autismo / é autista / e autista/ parece cego / alejado / leproso / aidético / aidetico
9, Homofobia,boiola / baitola / gay desperdicio / gay desperdício / cara de traveco / voz de traveco / queima rosca / meio afeminado / coisa de boiola /  parece uma bixa / jeitinho de gay / jeito de gay / biba / viado / viadinho
3, Misoginia,vadia safada / vai lavar louça / vai lavar louca / mal comida / falta de rola /  falta de pica  / cara de puta / odeio mulher / odeio ser mulher / feminazi / feminista mal comida / odeio vagabunda / odeio vagabunda / vadia vagabunda / tudo vagabunda
4, Política,comunista safado / coxinha fascista / comunista ladrao / comunista ladrão  / bolsa esmola / bolsa compra votos / petista vagabundo / temer vampiro / petralha / elite golpista / esquerda caviar / petralha / golpistas temer / golpe temer / golpistas dilma / golpistas brasil / artistas / artistas golpistas
11, Idade_geração,velho burro / velho babão / velho babao/ velho nojento / velho safado / velho tarado / velho pra isso / esse velho / velho asilo / não tenho idade / adolecente preguiçoso /  adolescente chato / adolescente chato / adolescente maconheiro / aborrecente
2, Racismo,cabelo ruim/ cabelo de bombril / não sou tuas nega / nao sou tuas nega / tinha que ser preto / da cor do pecado  / preto é foda / preto e foda / nego é foda / nego e foda/ gordo feio / negro gordo / criola / crioula / caboclo / caboco / macaco / mestico / mestiço / cafuzo / volta para a senzala / voltem para a senzala / volta pra senzala / voltem pra senzala
10, Religioso,crente do rabo quente / crente do cu quente / odeio crente / sem deus no coração / muçulmano bomba /  muculmano bomba/ tudo terrorista / padre pedofilo / crente safado / crentona /  chuta que é macumba / chuta que e macumba / bancada evangelica temer / bancada evangélica temer / bancada evangelica roubar / bancada evangélica roubar/ evanjegue
8, Xenofobia,nordestino povo burro / nordestino vagabundo / arabe bomba / árabe bomba / muçulmano bomba / muculmano bomba / japones é tudo igual / japonês é tudo igual / japones e tudo igual / baianada / tudo terrorista / volta pra sua terra / caiçara folgado / caipira burro / povo da roça / povo da roca / carcamano
